# Blender v2.79 (sub 0) OBJ File: 'BlenderNatureAsset.blend'
# www.blender.org
mtllib Tree.mtl
o Tree_Cylinder.002
v 0.151718 0.014112 -0.249142
v 0.118639 2.015786 -0.194823
v 0.283451 0.014112 -0.068889
v 0.221651 2.037494 -0.053870
v 0.249142 0.014112 0.151718
v 0.194823 2.014112 0.118639
v 0.068889 0.014112 0.283451
v 0.053870 2.169302 0.221651
v -0.151718 0.014112 0.249142
v -0.118639 2.048636 0.194823
v -0.283451 0.014112 0.068889
v -0.221651 2.055898 0.053870
v -0.249142 0.014112 -0.151718
v -0.194823 1.988946 -0.118639
v -0.068889 0.014112 -0.283451
v -0.064481 2.033644 -0.196975
v 0.421742 3.525116 0.198132
v 0.442530 3.512914 0.227982
v 0.435867 3.507860 0.265426
v 0.405658 3.512914 0.288531
v 0.369596 3.525116 0.283762
v 0.348808 3.537318 0.253912
v 0.355471 3.542372 0.216468
v 0.385681 3.537318 0.193363
v 0.161935 2.662142 -0.037779
v 0.080057 2.768291 -0.047691
v 0.010650 2.780973 0.006485
v -0.005628 2.768291 0.093016
v 0.040758 2.737675 0.161211
v 0.122636 2.707058 0.171123
v 0.192042 2.618844 0.116946
v 0.208321 2.720903 0.030416
v 0.118639 0.340778 -0.194823
v 0.221651 0.340778 -0.053870
v 0.194823 0.340778 0.118639
v 0.053870 0.340778 0.221651
v -0.118639 0.340778 0.194823
v -0.221651 0.340778 0.053870
v -0.194823 0.340778 -0.118639
v -0.053870 0.340778 -0.221651
v 0.140287 2.375893 -0.116301
v -0.009572 2.357491 -0.104704
v -0.092086 2.430797 -0.056077
v -0.113640 2.378719 0.073443
v -0.038941 2.334047 0.178017
v 0.088253 2.360585 0.196387
v 0.193433 2.354244 0.117793
v 0.214986 2.302460 -0.011727
v -1.282589 2.859783 -0.773434
v -1.278593 2.853551 -0.799130
v -1.257598 2.859783 -0.814473
v -1.247624 2.915950 -0.801517
v -1.263291 2.926926 -0.789811
v -1.266501 2.915950 -0.770519
v -0.729515 2.576605 -0.372558
v -0.717133 2.618936 -0.446964
v -0.656710 2.576605 -0.492114
v -0.791565 2.359977 -0.383802
v -0.695178 2.359977 -0.542082
v -0.776152 2.335944 -0.482904
v 0.118639 1.780728 -0.194823
v 0.221651 1.782490 -0.053870
v 0.194823 1.782113 0.118639
v 0.053870 1.667637 0.221651
v -0.118639 1.693037 0.194823
v -0.221651 1.642754 0.053870
v -0.194823 1.646287 -0.118639
v -0.053870 1.747232 -0.221651
v 0.270474 2.717639 1.071413
v 0.228709 2.705938 1.097257
v 0.221505 2.658892 1.114110
v 0.321424 2.697720 1.102440
v 0.307921 2.674968 1.145494
v 0.272455 2.638973 1.145136
v 0.044991 2.086218 0.632167
v 0.157909 2.044014 0.649728
v 0.250171 2.086218 0.582301
v 0.044991 2.237829 0.632167
v 0.250171 2.237829 0.582301
v 0.157909 2.355424 0.649728
v 0.982409 3.118589 -0.148177
v 0.990875 3.102383 -0.128845
v 0.987723 3.123612 -0.133403
v 0.994742 3.074039 -0.186999
v 1.006719 3.055867 -0.154355
v 1.010957 3.059541 -0.176635
v 0.609007 2.471889 -0.086768
v 0.562317 2.517788 -0.152132
v 0.595535 2.504256 -0.005812
v 0.575848 2.743918 -0.103052
v 0.604841 2.767870 -0.060427
v 0.594666 2.716854 -0.006341
v -0.891165 2.717076 -0.556211
v -0.845003 2.684737 -0.590705
v -0.874392 2.519238 -0.628879
v -0.936254 2.500878 -0.583669
v -0.900624 2.684737 -0.499367
v -0.948029 2.519238 -0.507958
v -0.582094 2.512076 -0.261924
v -0.657657 2.258296 -0.275617
v -0.528667 2.563625 -0.329180
v -0.500098 2.512188 -0.398705
v -0.543400 2.258184 -0.461110
v -0.638888 2.229030 -0.396300
v -0.763546 3.142371 -0.082064
v -0.766514 3.161203 -0.090132
v -0.750799 3.165211 -0.102997
v -0.722193 3.128166 -0.065556
v -0.716628 3.151098 -0.069792
v -0.707907 3.154205 -0.089527
v -0.537682 2.776087 -0.179868
v -0.523406 2.834920 -0.190735
v -0.501030 2.842892 -0.241364
v -0.643775 2.812531 -0.222219
v -0.651388 2.860844 -0.242918
v -0.611072 2.871127 -0.275923
v 0.186142 1.060628 -0.045240
v 0.163612 1.060628 0.099633
v 0.045240 1.033554 0.186142
v -0.099633 1.060628 0.163612
v -0.186142 1.060628 0.045240
v -0.163612 1.045493 -0.099633
v -0.045240 1.060628 -0.186142
v 0.099633 1.060628 -0.163612
v 0.169500 2.822241 0.041996
v 0.376959 3.043801 0.404304
v -0.120541 3.213298 0.395175
v -0.127948 3.219277 -0.149627
v 0.336443 3.122746 -0.339138
v 0.672346 3.163363 0.052641
v 0.233688 3.563807 0.555261
v -0.187333 3.665420 0.132189
v 0.018638 3.673495 -0.356365
v 0.512890 3.673495 -0.239169
v 0.716702 3.547193 0.367950
v 0.243330 3.932464 0.097083
v -0.046158 2.941078 0.275192
v 0.249372 2.855600 0.213159
v 0.105490 3.081668 0.539080
v 0.540580 2.931354 0.151715
v 0.457537 2.859711 0.036951
v -0.024733 2.867303 -0.114056
v -0.196445 3.172288 0.125294
v 0.272019 2.830142 -0.172228
v 0.078297 3.085594 -0.323619
v 0.552438 3.100845 -0.188542
v 0.636567 3.307287 0.505829
v 0.722859 3.404479 0.225135
v -0.006872 3.448205 0.509990
v 0.367659 3.350793 0.617212
v -0.226730 3.449370 -0.014379
v -0.202472 3.449370 0.283206
v 0.156389 3.453672 -0.430236
v -0.072711 3.449546 -0.270576
v 0.687867 3.449546 -0.090227
v 0.446903 3.453671 -0.361348
v 0.579651 3.502012 0.553226
v -0.067667 3.702561 0.364948
v -0.108925 3.703526 -0.117844
v 0.231966 3.718078 -0.402556
v 0.654760 3.699972 0.064021
v 0.252135 3.784535 0.371177
v 0.535529 3.775369 0.260777
v -0.009805 3.860317 0.117719
v 0.096995 3.867042 -0.182851
v 0.387507 3.867042 -0.113965
v 0.204493 2.158967 0.476539
v 0.508187 2.235765 1.026400
v 0.059815 2.496195 1.108813
v 0.194296 2.890886 0.758051
v 0.679004 2.841016 0.604875
v 0.904446 2.499124 0.921509
v 0.387475 2.522403 1.464528
v 0.062930 2.882838 1.313559
v 0.339291 3.100338 1.009409
v 0.818233 2.963894 1.045995
v 0.885884 2.526866 1.304245
v 0.528155 2.906671 1.412428
v 0.068994 2.294693 0.785263
v 0.289674 2.106783 0.656500
v 0.225685 2.248453 1.124168
v 0.707913 2.284660 0.784456
v 0.582273 2.246128 0.598323
v 0.140923 2.460442 0.447899
v 0.052428 2.682240 0.895244
v 0.429492 2.389032 0.403984
v 0.423203 2.873931 0.563127
v 0.845109 2.662339 0.706344
v 0.749053 2.299774 1.239665
v 0.926886 2.519626 1.160852
v 0.164086 2.536672 1.371061
v 0.470886 2.314682 1.338393
v 0.087727 2.967257 1.011243
v 0.034022 2.748455 1.207167
v 0.488207 3.015591 0.801978
v 0.293881 3.093896 0.860770
v 0.981015 2.779025 0.981534
v 0.775181 2.941558 0.864298
v 0.694270 2.416782 1.375498
v 0.130497 2.725021 1.491073
v 0.215609 3.083711 1.177609
v 0.509699 3.004001 1.048455
v 0.929364 2.835909 1.193412
v 0.463370 2.701070 1.484265
v 0.775482 2.762022 1.342491
v 0.223910 2.854704 1.451899
v 0.413608 3.076068 1.236049
v 0.705328 3.027592 1.214047
v 0.694270 2.416782 1.375498
v 1.189568 2.669034 0.064989
v 1.051555 3.089813 -0.006805
v 0.747719 2.823972 -0.046713
v 0.960304 2.602131 -0.341194
v 1.288237 2.797369 -0.461142
v 1.255613 3.178779 -0.327534
v 0.679948 3.164986 -0.210941
v 0.562583 2.806425 -0.337240
v 0.842312 2.733668 -0.558782
v 1.065979 3.045929 -0.632444
v 1.010008 3.346602 -0.372926
v 0.716595 3.090687 -0.523234
v 0.959279 2.700171 0.078087
v 1.146609 2.813559 0.094435
v 0.856442 2.992084 0.070231
v 1.285061 3.057510 -0.087633
v 1.334591 2.886248 -0.020991
v 1.156430 2.527896 -0.065741
v 0.844137 2.658581 -0.156804
v 1.338476 2.674139 -0.093132
v 1.188618 2.632441 -0.391998
v 1.332684 2.990821 -0.402597
v 1.021145 3.315936 -0.161700
v 1.117468 3.300557 -0.369901
v 0.629863 2.997887 -0.135666
v 0.828546 3.213539 -0.084218
v 0.744482 2.645242 -0.379063
v 0.634972 2.782349 -0.224480
v 1.051490 2.737701 -0.533606
v 0.912369 2.639544 -0.525968
v 1.210656 3.158805 -0.554356
v 1.159741 2.942013 -0.586556
v 0.894433 3.316052 -0.235879
v 0.511384 2.978634 -0.265598
v 0.684845 2.756097 -0.518653
v 0.913652 2.872698 -0.553865
v 1.048738 3.216783 -0.594132
v 0.675190 3.157343 -0.363500
v 0.897817 3.232352 -0.501991
v 0.558380 2.967108 -0.385055
v 0.743271 2.890723 -0.586793
v 0.900922 3.048300 -0.652059
v -0.885016 2.673695 -0.345814
v -1.132297 3.065302 -0.269518
v -1.458661 2.661680 -0.165339
v -1.256270 2.375302 -0.582382
v -0.931229 2.658076 -0.856752
v -0.993643 3.149817 -0.707532
v -1.687338 3.090258 -0.360261
v -1.763599 2.528992 -0.573643
v -1.507364 2.452591 -1.031292
v -1.370450 2.931441 -1.132028
v -1.415924 3.400450 -0.694570
v -1.744828 2.907413 -0.884179
v -1.154633 2.626975 -0.145477
v -0.950017 2.833960 -0.262873
v -1.319886 2.909929 -0.074569
v -0.883491 3.058806 -0.461657
v -0.809227 2.919897 -0.480109
v -0.934156 2.434715 -0.413511
v -1.347647 2.452870 -0.321394
v -0.771490 2.651083 -0.553335
v -1.000373 2.442624 -0.726138
v -0.891617 2.915716 -0.813566
v -1.286768 3.372122 -0.448588
v -1.238679 3.313250 -0.731088
v -1.660183 2.848029 -0.242463
v -1.473999 3.207598 -0.267499
v -1.539462 2.391677 -0.559432
v -1.645371 2.565646 -0.341114
v -1.242262 2.502206 -1.027611
v -1.384328 2.390011 -0.814950
v -1.175143 3.126956 -0.970378
v -1.162360 2.783695 -1.086978
v -1.495916 3.373994 -0.482331
v -1.841865 2.755244 -0.461121
v -1.671558 2.471518 -0.815078
v -1.449106 2.615260 -1.171913
v -1.458810 3.211407 -0.968711
v -1.765058 3.038622 -0.613381
v -1.621837 3.220922 -0.805459
v -1.818073 2.695722 -0.742750
v -1.680185 2.632570 -1.020534
v -1.588734 2.913544 -1.076736
v 0.033363 2.554275 -0.077393
v -0.565674 2.734732 -0.135989
v -0.480630 2.974656 0.154124
v -0.943892 2.923615 0.137796
v -0.829615 2.949221 -0.264721
v -0.376942 2.816622 -0.426012
v -0.170316 2.826858 -0.160821
v -0.694298 3.311715 0.276957
v -1.030765 3.174798 -0.177308
v -0.648055 3.216990 -0.500030
v -0.329750 3.247540 -0.341090
v -0.333696 3.296117 0.048337
v -0.612784 3.495292 -0.080053
v -0.774236 2.816867 0.005628
v -0.509037 2.805637 0.034594
v -0.702963 2.931201 0.176345
v -0.307548 2.898527 0.019720
v -0.309594 2.697390 -0.150370
v -0.759557 2.800832 -0.203743
v -1.007728 2.883244 -0.066100
v -0.429320 2.692297 -0.304809
v -0.562091 2.855215 -0.379241
v -0.213535 2.744802 -0.329894
v -0.373043 3.136724 0.145265
v -0.220815 3.083529 -0.054776
v -0.866577 3.095694 0.230640
v -0.583497 3.137001 0.250491
v -0.975889 3.042793 -0.257054
v -1.082722 3.037226 0.052129
v -0.492391 3.038968 -0.476482
v -0.722791 3.070296 -0.440979
v -0.169256 2.996727 -0.270911
v -0.299377 2.995856 -0.429499
v -0.489104 3.344354 0.225119
v -0.938554 3.263353 0.133471
v -0.809748 3.227077 -0.402560
v -0.497777 3.261563 -0.460110
v -0.285597 3.298392 -0.146816
v -0.671602 3.453235 0.164715
v -0.446376 3.458208 0.043617
v -0.835613 3.374922 -0.173230
v -0.675480 3.371617 -0.409683
v -0.468308 3.427119 -0.254983
v 0.118639 1.966824 -0.194823
v 0.221651 1.983809 -0.053870
v 0.194823 1.965277 0.118639
v -0.118639 1.974513 0.194823
v -0.221651 2.032869 0.053870
v -0.194823 1.914143 -0.118639
v -0.062247 1.976827 -0.202170
v 0.281200 2.713446 1.077945
v 0.245385 2.699418 1.107412
v 0.232232 2.654699 1.120642
v 0.044991 2.205911 0.632167
v 0.250171 2.205911 0.582301
v -1.050004 2.120377 0.486432
v -1.080943 2.109894 0.471878
v -1.088239 2.090458 0.444483
v -1.029205 2.158726 0.452277
v -1.052116 2.163045 0.424540
v -1.068447 2.126951 0.411981
v -0.534920 1.976469 0.273290
v -0.596757 1.879906 0.217226
v -0.536126 1.968388 0.388557
v -0.742243 1.826809 0.265016
v -0.746812 1.899136 0.342893
v -0.689010 1.912591 0.438778
v -0.830859 2.245532 0.016551
v -0.648892 1.931364 0.147504
v -0.890112 1.812320 -0.233449
v -1.146981 2.071013 -0.026493
v -0.981913 2.423920 0.284506
v -0.672091 2.334635 0.380234
v -0.789166 1.538084 0.149813
v -1.267867 1.783954 -0.070884
v -1.326388 2.079747 0.330959
v -1.045766 2.078063 0.551779
v -0.766651 1.812660 0.476380
v -1.085108 1.643641 0.412639
v -0.862832 2.028128 -0.131816
v -0.695233 2.114120 0.057423
v -0.734833 1.870342 -0.054250
v -0.632451 2.127481 0.270326
v -0.692019 2.372679 0.194694
v -1.009806 2.167991 -0.075729
v -1.066039 1.938553 -0.253275
v -0.872436 2.424263 0.139919
v -1.058554 2.302210 0.153091
v -0.795418 2.478055 0.342710
v -0.656298 1.857381 0.327479
v -0.709503 2.067939 0.464788
v -0.839256 1.660508 -0.097157
v -0.687904 1.720106 0.139011
v -1.252545 1.946258 -0.085677
v -1.070439 1.730495 -0.250972
v -1.161680 2.250842 0.339654
v -1.268484 2.124838 0.172196
v -0.816694 2.276345 0.509342
v -1.007344 2.323581 0.450152
v -0.731201 1.618224 0.339747
v -1.012094 1.570110 -0.028696
v -1.341457 1.957345 0.187650
v -1.231612 2.077689 0.462019
v -0.891457 1.942831 0.565162
v -0.913745 1.509378 0.279417
v -0.888312 1.657447 0.486407
v -1.232285 1.706062 0.195231
v -1.327039 1.904611 0.377339
v -1.117835 1.847552 0.528701
v 0.546255 2.486292 -0.843622
v 0.569020 2.491089 -0.812473
v 0.505787 2.490238 -0.844098
v 0.551039 2.565872 -0.826269
v 0.517922 2.561805 -0.823707
v 0.567547 2.549644 -0.803159
v 0.317423 2.337094 -0.422474
v 0.367027 2.288331 -0.353031
v 0.217909 2.324874 -0.414773
v 0.371454 2.112379 -0.381016
v 0.181447 2.109823 -0.476046
v 0.303048 2.097964 -0.474617
v 0.008688 2.531123 -0.737648
v 0.300625 2.494639 -1.076321
v 0.466528 2.383168 -0.723290
v 0.373569 2.757759 -0.543946
v 0.246178 3.021425 -0.816522
v 0.336316 2.868989 -1.181251
v 0.722993 2.466708 -0.997336
v 0.754675 2.532339 -0.606208
v 0.623676 2.872044 -0.598300
v 0.595124 3.034625 -0.952859
v 0.610756 2.767883 -1.252009
v 0.828618 2.754842 -0.896282
v 0.193387 2.396482 -0.693688
v 0.077704 2.475122 -0.862950
v 0.379944 2.331897 -0.932174
v 0.147760 2.688405 -1.110807
v 0.014940 2.668051 -0.976012
v 0.052504 2.632469 -0.576659
v 0.389708 2.536931 -0.584631
v -0.025118 2.743457 -0.768843
v 0.231221 2.919736 -0.639486
v 0.248807 2.984164 -1.020069
v 0.482902 2.596667 -1.256359
v 0.508879 2.824795 -1.244318
v 0.665296 2.386139 -0.835235
v 0.558392 2.435146 -1.108727
v 0.577265 2.673237 -0.508795
v 0.631639 2.476509 -0.622935
v 0.448160 2.961077 -0.673617
v 0.519051 2.886732 -0.537621
v 0.481013 3.038460 -1.116365
v 0.461785 3.051340 -0.892551
v 0.620363 2.592489 -1.204924
v 0.818157 2.434648 -0.760599
v 0.734366 2.753515 -0.573646
v 0.613750 2.897560 -0.752226
v 0.648615 2.983191 -1.112387
v 0.802360 2.593829 -0.967399
v 0.725082 2.824473 -1.090687
v 0.838602 2.561323 -0.748473
v 0.770526 2.834327 -0.709080
v 0.735428 2.963837 -0.898656
v -0.042873 2.598540 -0.026108
v -0.061900 2.565333 0.082819
v -0.000763 2.588062 0.169966
v 0.104723 2.526554 0.184285
v 0.192767 2.480994 0.117387
v 0.150657 2.513013 -0.078687
v 0.999129 3.078149 -0.142135
v 0.999827 3.090233 -0.155926
v 0.988834 3.095380 -0.168402
v 0.568798 2.626110 -0.128621
v 0.595119 2.606096 -0.006066
v -0.527412 2.757831 1.013927
v -0.498272 2.740405 1.054722
v -0.448653 2.750757 1.061888
v -0.507228 2.830630 1.017585
v -0.483378 2.839497 1.051581
v -0.442228 2.815502 1.057167
v -0.168752 2.558753 0.620726
v -0.242071 2.601504 0.610774
v -0.284564 2.585707 0.550202
v -0.180200 2.443396 0.629138
v -0.320526 2.456000 0.543685
v -0.268606 2.424951 0.616369
v -0.135202 2.606462 1.015092
v -0.473465 2.605639 0.829244
v -0.252941 3.004260 0.729475
v -0.178893 2.945932 1.137947
v -0.175874 2.494908 1.350264
v -0.352027 2.289943 1.150052
v -0.727994 2.929739 0.761976
v -0.329583 3.214946 1.075406
v -0.396262 2.914212 1.472280
v -0.594635 2.625875 1.401411
v -0.768942 2.616739 1.049897
v -0.793938 2.963441 1.164861
v -0.177893 2.817375 0.860197
v -0.275939 2.570540 0.887669
v -0.361582 2.786440 0.747957
v -0.425356 2.428696 0.971351
v -0.192439 2.360592 1.073831
v -0.097517 2.815169 1.054731
v -0.124476 3.062332 0.895012
v -0.090826 2.479774 1.190802
v -0.157002 2.674449 1.277013
v -0.207126 2.308931 1.275869
v -0.650070 2.577175 0.906183
v -0.591527 2.434278 1.111543
v -0.461976 2.998713 0.707504
v -0.608859 2.758539 0.762059
v -0.208406 3.116735 1.125075
v -0.270438 3.184677 0.811109
v -0.307998 2.696832 1.434424
v -0.262295 2.915176 1.359838
v -0.461305 2.369622 1.300671
v -0.358080 2.500321 1.420440
v -0.814038 2.762404 0.864214
v -0.546853 3.142371 0.829530
v -0.378840 3.056288 1.348757
v -0.503891 2.793718 1.480085
v -0.721589 2.590806 1.243516
v -0.820026 2.978152 0.911400
v -0.865765 2.786989 1.075049
v -0.575791 3.122219 1.169921
v -0.550742 2.996208 1.424985
v -0.728228 2.819132 1.340868
vn 0.8074 0.0000 -0.5900
vn 0.9881 0.0000 0.1537
vn 0.7554 -0.4902 0.4349
vn -0.1195 -0.6216 0.7742
vn -0.8074 0.0000 0.5900
vn -0.9881 0.0000 -0.1537
vn 0.2916 0.1739 -0.9406
vn 0.0299 0.0497 -0.9983
vn -0.5313 0.0244 -0.8468
vn 0.0000 -1.0000 0.0000
vn 0.2940 0.9389 0.1790
vn -0.5027 0.4340 -0.7476
vn -0.8949 0.4340 -0.1035
vn -0.7571 0.2204 0.6150
vn -0.1547 -0.0888 0.9840
vn 0.4220 -0.2671 0.8663
vn 0.9633 -0.2637 -0.0496
vn 0.8441 -0.1148 -0.5238
vn 0.1629 0.1632 -0.9731
vn -0.4992 0.2563 -0.8277
vn -0.9532 0.2833 -0.1057
vn -0.7971 0.2188 0.5628
vn -0.0882 0.0818 0.9927
vn 0.6101 0.0009 0.7923
vn 0.8078 -0.5174 0.2824
vn 0.4880 -0.4382 -0.7549
vn 0.7946 0.1770 -0.5807
vn 0.9725 0.1770 0.1512
vn 0.5807 0.1770 0.7946
vn -0.1512 0.1770 0.9725
vn -0.7946 0.1770 0.5807
vn -0.9725 0.1770 -0.1512
vn 0.1512 0.1770 -0.9725
vn -0.5807 0.1770 -0.7946
vn -0.0732 0.8853 0.4592
vn 0.5289 0.8445 -0.0839
vn 0.1585 0.8466 0.5080
vn -0.7637 0.2330 0.6020
vn -0.2129 0.1363 0.9675
vn 0.5948 0.0026 0.8039
vn 0.9874 0.0024 0.1580
vn 0.0885 0.8438 0.5293
vn -0.5549 0.2450 -0.7950
vn -0.9610 0.2450 -0.1281
vn -0.5446 0.1129 0.8311
vn 0.5086 0.1067 -0.8543
vn -0.2855 -0.6860 -0.6692
vn -0.7320 -0.6794 0.0509
vn 0.8358 0.3485 0.4243
vn 0.5533 0.0196 0.8328
vn -0.5637 0.1216 0.8170
vn 0.5328 0.1079 -0.8394
vn -0.1987 -0.7660 -0.6114
vn -0.6448 -0.7598 0.0840
vn 0.8066 -0.0468 -0.5892
vn 0.9871 -0.0467 0.1534
vn 0.6069 -0.0497 0.7932
vn -0.1620 -0.0532 0.9853
vn -0.8010 -0.0555 0.5961
vn -0.9868 -0.0570 -0.1514
vn 0.1584 -0.0479 -0.9862
vn -0.5739 -0.0524 -0.8173
vn 0.0509 0.8763 0.4790
vn -0.3770 0.3630 0.8521
vn -0.8457 -0.1591 0.5093
vn 0.9337 0.2273 -0.2766
vn -0.7784 0.5690 -0.2653
vn 0.1196 0.7371 -0.6651
vn 0.6869 -0.6317 0.3593
vn -0.2671 -0.6776 0.6852
vn -0.9366 0.0000 0.3504
vn 0.9930 0.0000 -0.1185
vn -0.6212 0.7707 -0.1421
vn 0.5359 0.7267 -0.4298
vn 0.9539 0.1956 0.2276
vn 0.7148 0.5553 -0.4252
vn -0.3831 0.2868 -0.8781
vn -0.6761 0.7361 0.0326
vn -0.3981 0.6012 0.6929
vn 0.3981 -0.0626 0.9152
vn 0.4253 -0.8137 0.3961
vn 0.1913 -0.7337 -0.6519
vn -0.1899 0.2495 -0.9496
vn -0.2269 0.8482 -0.4787
vn 0.0775 0.6672 0.7409
vn 0.2923 0.0041 0.9563
vn 0.4792 0.7896 -0.3831
vn -0.0425 0.8906 0.4528
vn -0.5556 0.1295 0.8213
vn 0.5331 0.1330 -0.8355
vn -0.0858 -0.8238 -0.5603
vn -0.5405 -0.8207 0.1853
vn 0.1105 0.9505 0.2903
vn -0.2920 0.2870 0.9124
vn -0.4627 -0.4837 0.7429
vn -0.9424 -0.2457 -0.2270
vn -0.6479 0.1332 -0.7500
vn 0.3758 0.5959 -0.7097
vn 0.8646 -0.2266 0.4485
vn 0.8781 -0.2496 0.4082
vn -0.5670 -0.2213 0.7935
vn -0.9691 0.2011 0.1431
vn -0.3468 0.6220 -0.7020
vn 0.5068 0.4151 -0.7555
vn 0.8065 0.0468 -0.5894
vn 0.9870 0.0468 0.1535
vn 0.5861 0.0477 0.8088
vn -0.1495 0.0477 0.9876
vn -0.8065 0.0468 0.5894
vn -0.9867 0.0473 -0.1557
vn 0.1535 0.0468 -0.9870
vn -0.5912 0.0473 -0.8051
vn 0.3545 0.9347 0.0272
vn -0.0845 0.4966 -0.8638
vn 0.0930 0.0485 -0.9945
vn -0.5724 0.0225 -0.8197
vn -0.8628 -0.1702 0.4760
vn 0.9200 0.2139 -0.3283
vn -0.4812 0.7140 0.5086
vn -0.9004 0.4301 -0.0654
vn -0.2189 -0.7327 0.6444
vn -0.3655 -0.8046 0.4681
vn -0.4273 -0.0218 -0.9039
vn 0.2678 0.3203 0.9087
vn 0.0484 0.9714 0.2326
vn -0.5092 0.6641 -0.5475
vn -0.2406 -0.9432 0.2290
vn -0.2056 -0.9010 0.3820
vn -0.5833 0.1454 -0.7992
vn 0.3969 -0.0434 0.9169
vn -0.0279 0.2451 -0.9691
vn 0.8157 0.0907 -0.5713
vn 0.9209 -0.0385 0.3879
vn -0.8442 0.2743 -0.4604
vn -0.0565 -0.6689 -0.7412
vn 0.6162 -0.7099 -0.3410
vn -0.1347 0.9703 -0.2009
vn 0.5287 0.8246 0.2014
vn 0.9120 -0.0420 0.4080
vn -0.7554 0.2948 -0.5852
vn -0.0876 -0.9387 -0.3335
vn 0.3057 -0.9490 -0.0772
vn -0.0306 0.1955 -0.9802
vn -0.3853 0.2375 -0.8917
vn -0.9580 0.2799 -0.0629
vn 0.2020 0.9038 -0.3774
vn 0.5135 0.8405 -0.1727
vn 0.6018 0.0016 0.7986
vn 0.9548 0.2015 0.2186
vn 0.7337 0.5459 -0.4045
vn -0.4157 0.2826 -0.8645
vn 0.3697 -0.0655 0.9268
vn -0.1729 0.2492 -0.9529
vn 0.2920 0.0041 0.9564
vn -0.7966 0.1608 0.5828
vn -0.1293 0.0643 0.9895
vn 0.8351 -0.0429 0.5485
vn -0.8156 0.2523 -0.5208
vn 0.0769 -0.7897 0.6086
vn -0.6697 -0.7231 0.1695
vn -0.1798 0.9753 -0.1282
vn 0.4668 0.8540 0.2295
vn 0.8450 -0.0450 0.5328
vn -0.8669 0.2617 -0.4244
vn 0.1574 -0.9473 0.2789
vn -0.4554 -0.8886 -0.0543
vn -0.2117 -0.9360 0.2812
vn 0.3170 -0.7730 0.5495
vn -0.3411 -0.9268 0.1569
vn -0.1438 -0.9840 -0.1051
vn 0.1294 -0.9913 0.0254
vn 0.4499 -0.6705 0.5899
vn -0.5799 -0.1137 0.8067
vn -0.9317 -0.2395 -0.2731
vn -0.0183 -0.2746 -0.9614
vn 0.8928 -0.2391 -0.3819
vn 0.2430 -0.5478 0.8005
vn -0.7563 0.0470 0.6525
vn -0.8552 -0.0649 -0.5142
vn 0.2284 -0.1409 -0.9633
vn 0.9852 -0.1163 -0.1259
vn 0.1171 0.6303 0.7675
vn -0.7049 0.6611 0.2569
vn -0.6415 0.6395 -0.4236
vn 0.4491 0.6719 -0.5889
vn 0.7253 0.6630 0.1855
vn -0.6510 -0.4480 0.6128
vn -0.1331 -0.8409 0.5245
vn 0.1998 -0.7616 0.6165
vn 0.7995 -0.5536 -0.2330
vn 0.3030 -0.8913 0.3372
vn 0.1301 -0.9828 0.1308
vn -0.9137 -0.2961 -0.2783
vn -0.8523 -0.5205 0.0517
vn -0.8767 -0.3733 0.3033
vn 0.0197 -0.4987 -0.8666
vn -0.2251 -0.6174 -0.7538
vn -0.7178 -0.2751 -0.6395
vn 0.7959 -0.5500 -0.2531
vn 0.6079 -0.6567 -0.4463
vn 0.4546 -0.5147 -0.7269
vn 0.9552 -0.1876 0.2287
vn 0.9144 -0.3757 0.1510
vn 0.8816 -0.3826 0.2766
vn -0.2422 0.1274 0.9618
vn -0.2773 -0.0088 0.9607
vn 0.3149 -0.5344 0.7844
vn -0.9888 0.1256 0.0806
vn -0.9944 -0.0678 0.0811
vn -0.9379 -0.1869 0.2922
vn -0.5689 -0.0815 -0.8184
vn -0.5665 -0.1161 -0.8159
vn -0.7024 -0.1915 -0.6855
vn 0.7409 0.1424 -0.6563
vn 0.7428 -0.1019 -0.6617
vn 0.5399 -0.2345 -0.8084
vn 0.0617 0.3143 0.9473
vn 0.3635 -0.1187 0.9240
vn 0.7912 0.0838 0.6057
vn -0.8594 0.3320 0.3889
vn -0.7432 0.1884 0.6420
vn -0.3512 0.3991 0.8470
vn -0.8606 0.1667 -0.4812
vn -0.8424 0.1844 -0.5063
vn -0.9147 0.3275 -0.2369
vn 0.5150 0.2931 -0.8055
vn 0.2306 0.0359 -0.9724
vn -0.2422 0.1693 -0.9553
vn 0.9798 0.1611 -0.1187
vn 0.9800 0.1806 -0.0829
vn 0.8293 0.3685 -0.4202
vn 0.2069 0.8637 0.4595
vn 0.2708 0.7233 0.6352
vn 0.5148 0.6637 0.5427
vn -0.2063 0.8583 0.4699
vn -0.2259 0.8443 0.4859
vn -0.1784 0.6390 0.7483
vn -0.2791 0.9571 -0.0778
vn -0.6480 0.7310 -0.2139
vn -0.7378 0.6623 -0.1304
vn 0.0610 0.9644 -0.2573
vn 0.1199 0.8544 -0.5056
vn -0.2878 0.7012 -0.6523
vn 0.4571 0.8886 0.0368
vn 0.5313 0.8472 -0.0026
vn 0.6560 0.6608 -0.3647
vn -0.6231 -0.7791 0.0690
vn 0.3603 -0.9263 0.1102
vn -0.9248 -0.2242 -0.3073
vn -0.1807 -0.1307 -0.9748
vn 0.3679 -0.5872 -0.7210
vn 0.2488 -0.9685 0.0097
vn -0.7775 -0.4966 0.3858
vn -0.8494 0.2858 -0.4437
vn 0.1934 0.8199 -0.5389
vn 0.9103 -0.1679 -0.3784
vn 0.0366 -0.9678 0.2492
vn -0.8879 -0.2431 0.3906
vn -0.6836 0.5675 -0.4589
vn 0.3129 0.8408 -0.4418
vn 0.9659 -0.2494 -0.0692
vn 0.2107 -0.1953 0.9578
vn -0.4849 0.5538 0.6769
vn 0.0077 0.9945 0.1040
vn 0.1216 0.9525 -0.2793
vn 0.6391 0.1784 0.7481
vn -0.8012 -0.5179 0.2998
vn -0.5836 -0.7959 0.1612
vn 0.0599 -0.9530 0.2969
vn 0.7844 -0.4385 -0.4387
vn 0.4133 -0.9060 -0.0914
vn 0.3271 -0.8549 -0.4027
vn -0.8656 0.3589 -0.3492
vn -0.9794 0.0153 -0.2013
vn -0.9991 -0.0421 -0.0021
vn 0.1917 0.3083 -0.9318
vn -0.0675 0.3103 -0.9482
vn -0.5220 0.5403 -0.6600
vn 0.7865 -0.3679 -0.4960
vn 0.6694 -0.2403 -0.7030
vn 0.5633 0.0555 -0.8244
vn 0.7945 -0.5512 0.2550
vn 0.7681 -0.6386 -0.0482
vn 0.7410 -0.6714 -0.0120
vn -0.3447 -0.5845 0.7346
vn -0.3968 -0.6446 0.6535
vn 0.0430 -0.9673 0.2498
vn -0.9745 0.2235 -0.0175
vn -0.9830 0.1591 -0.0918
vn -0.9955 -0.0860 -0.0405
vn 0.3327 0.9323 -0.1420
vn 0.1707 0.8264 -0.5366
vn -0.5058 0.5740 -0.6440
vn 0.6832 0.6874 -0.2464
vn 0.6886 0.4800 -0.5436
vn 0.7655 0.4512 -0.4587
vn 0.0815 -0.4932 0.8661
vn 0.2057 -0.6989 0.6850
vn 0.5428 -0.5156 0.6630
vn -0.9469 -0.0479 0.3178
vn -0.8994 -0.3374 0.2778
vn -0.3527 -0.5468 0.7594
vn -0.1354 0.9908 -0.0016
vn -0.5807 0.8056 -0.1176
vn -0.7494 0.6511 0.1203
vn 0.1263 0.9805 -0.1505
vn 0.2448 0.9693 0.0242
vn 0.4925 0.8703 -0.0020
vn 0.9604 -0.0360 0.2764
vn 0.9690 -0.0328 0.2450
vn 0.7516 0.6596 0.0061
vn 0.3728 0.1992 0.9063
vn 0.4153 -0.0107 0.9096
vn 0.3441 0.0088 0.9389
vn 0.0702 0.3092 0.9484
vn 0.0387 0.2633 0.9639
vn 0.0121 -0.1148 0.9933
vn -0.0303 0.7110 0.7025
vn -0.1584 0.7556 0.6356
vn -0.3905 0.7008 0.5969
vn 0.1738 0.7642 0.6211
vn 0.1350 0.9461 -0.2943
vn 0.5034 0.8610 -0.0729
vn 0.4874 0.4812 0.7286
vn 0.4795 0.4815 0.7336
vn 0.6504 0.7435 0.1552
vn 0.6064 -0.1574 0.7794
vn 0.5517 0.4548 0.6991
vn 0.5992 -0.3299 0.7295
vn 0.8210 -0.3055 0.4824
vn 0.8769 -0.0078 0.4806
vn 0.4941 0.6102 0.6193
vn -0.4275 -0.0900 0.8996
vn -0.0334 -0.9612 0.2740
vn 0.5967 -0.5473 -0.5869
vn 0.6769 0.5275 -0.5133
vn 0.2452 0.5778 0.7785
vn -0.5687 -0.2977 0.7668
vn -0.0601 -0.9977 -0.0300
vn 0.5746 -0.3218 -0.7525
vn 0.5294 0.7318 -0.4292
vn -0.7970 0.5911 0.1241
vn -0.9468 -0.3215 -0.0120
vn -0.6584 -0.6055 -0.4470
vn -0.2555 0.1833 -0.9493
vn -0.4237 0.7753 -0.4683
vn -0.0957 -0.2942 0.9509
vn 0.4609 0.0471 0.8862
vn 0.4797 0.4004 0.7807
vn 0.8520 0.4825 -0.2031
vn 0.7355 0.3134 0.6007
vn 0.8294 0.0483 0.5566
vn 0.0231 -0.9561 0.2922
vn 0.1083 -0.7634 0.6367
vn -0.1223 -0.6351 0.7627
vn 0.7637 -0.4958 -0.4135
vn 0.7310 -0.6604 -0.1715
vn 0.2166 -0.9737 -0.0705
vn 0.8550 0.4710 -0.2172
vn 0.9510 0.1982 -0.2374
vn 0.8828 -0.0576 -0.4661
vn 0.4190 0.9005 -0.1163
vn 0.6112 0.7892 -0.0604
vn 0.5497 0.8331 0.0621
vn -0.5218 0.3251 0.7887
vn -0.4654 0.2990 0.8331
vn 0.2612 0.6166 0.7427
vn -0.5010 -0.7788 0.3775
vn -0.3383 -0.8091 0.4806
vn -0.2982 -0.6681 0.6817
vn 0.1762 -0.9143 -0.3647
vn 0.2054 -0.9155 -0.3458
vn 0.1692 -0.9734 -0.1547
vn 0.4048 0.3076 -0.8611
vn 0.6138 0.2743 -0.7403
vn 0.7083 0.0094 -0.7059
vn -0.5737 0.6182 0.5373
vn -0.0923 0.7826 0.6156
vn -0.0104 0.9927 0.1198
vn -0.7463 -0.4849 0.4559
vn -0.6796 -0.2735 0.6807
vn -0.7933 0.1920 0.5777
vn -0.2709 -0.9548 -0.1221
vn -0.2695 -0.9500 -0.1574
vn -0.5226 -0.8526 0.0037
vn 0.2513 0.0594 -0.9661
vn 0.4292 -0.3014 -0.8514
vn 0.1365 -0.6754 -0.7247
vn 0.2626 0.7747 -0.5753
vn 0.2338 0.7963 -0.5579
vn 0.1540 0.5337 -0.8315
vn -0.8737 0.4089 -0.2634
vn -0.7816 0.6237 0.0091
vn -0.6099 0.7813 -0.1325
vn -0.9607 0.2149 -0.1759
vn -0.9725 0.1971 -0.1238
vn -0.9106 0.3578 0.2066
vn -0.8947 0.0112 -0.4466
vn -0.8379 -0.4461 -0.3145
vn -0.8482 -0.4874 -0.2073
vn -0.7725 0.1270 -0.6222
vn -0.5474 0.0108 -0.8368
vn -0.5130 -0.4488 -0.7317
vn -0.7113 0.4205 -0.5632
vn -0.6020 0.4910 -0.6298
vn -0.2548 0.4260 -0.8681
vn 0.0300 -0.1910 0.9811
vn 0.3480 0.4258 0.8352
vn -0.0489 -0.6725 0.7385
vn 0.5795 -0.6229 0.5256
vn 0.7146 -0.2135 0.6661
vn 0.3389 0.5623 0.7543
vn -0.6716 -0.0782 0.7368
vn -0.2198 -0.9629 0.1563
vn 0.3678 -0.5396 -0.7573
vn 0.8717 0.4420 -0.2117
vn 0.0293 0.5676 0.8228
vn -0.7903 -0.2493 0.5596
vn -0.1676 -0.9738 -0.1537
vn 0.3597 -0.4080 -0.8391
vn 0.6816 0.7046 -0.1972
vn -0.5775 0.8161 -0.0229
vn -0.9270 -0.1291 -0.3522
vn -0.2772 -0.3354 -0.9004
vn 0.0967 -0.4804 -0.8717
vn -0.2343 0.8200 -0.5222
vn -0.5763 -0.1816 0.7968
vn -0.0850 -0.0031 0.9964
vn 0.1634 0.3886 0.9068
vn 0.9573 0.2877 0.0279
vn 0.3482 0.4257 0.8352
vn 0.5277 -0.0162 0.8493
vn -0.3940 -0.9185 0.0330
vn -0.4479 -0.8166 0.3641
vn -0.6306 -0.6500 0.4242
vn 0.7566 -0.5820 -0.2982
vn 0.5972 -0.7791 -0.1907
vn 0.0598 -0.9523 -0.2993
vn 0.9336 0.3467 0.0904
vn 0.9998 0.0183 0.0000
vn 0.9682 -0.1657 -0.1876
vn 0.3887 0.9145 0.1123
vn 0.6428 0.7263 0.2437
vn 0.5722 0.7580 0.3129
vn -0.6576 0.4643 0.5932
vn -0.6108 0.3997 0.6835
vn 0.0350 0.5747 0.8176
vn -0.6143 -0.7538 0.2334
vn -0.5555 -0.7771 0.2957
vn -0.5546 -0.6603 0.5064
vn 0.1205 -0.2456 -0.9618
vn 0.3510 -0.5561 -0.7533
vn 0.0806 -0.9726 -0.2179
vn 0.4605 0.0236 -0.8874
vn 0.7362 -0.0730 -0.6728
vn 0.7222 0.0430 -0.6904
vn -0.5233 0.7940 0.3094
vn -0.2670 0.8483 0.4574
vn -0.0855 0.9854 0.1476
vn -0.8030 -0.4162 0.4266
vn -0.6850 -0.2914 0.6678
vn -0.6893 0.4591 0.5605
vn -0.2801 -0.4952 -0.8224
vn -0.4189 -0.7897 -0.4482
vn -0.6731 -0.6917 -0.2617
vn -0.0062 -0.4086 -0.9127
vn -0.0685 -0.2161 -0.9740
vn 0.1200 -0.0265 -0.9924
vn 0.3670 0.8289 -0.4222
vn 0.3959 0.8138 -0.4254
vn 0.3112 0.2377 -0.9201
vn -0.5204 0.7317 -0.4402
vn -0.4551 0.8477 -0.2724
vn -0.5243 0.8103 -0.2615
vn -0.7562 0.5107 -0.4091
vn -0.7778 0.5179 -0.3560
vn -0.7400 0.6725 -0.0106
vn -0.7069 0.1269 -0.6959
vn -0.7406 -0.0186 -0.6717
vn -0.8383 -0.1755 -0.5162
vn -0.5324 0.1911 -0.8246
vn 0.1176 -0.4782 -0.8704
vn 0.1834 -0.0594 -0.9813
vn -0.3711 0.5830 -0.7228
vn -0.3797 0.5807 -0.7201
vn 0.1181 0.2286 -0.9663
vn -0.0829 -0.9102 0.4058
vn 0.3234 -0.5820 0.7461
vn -0.3374 -0.9401 0.0483
vn -0.3171 -0.9482 -0.0177
vn -0.1354 -0.9812 0.1373
vn 0.5041 -0.2902 0.8135
vn -0.1300 -0.4250 0.8958
vn -0.4471 -0.6484 -0.6163
vn -0.2979 -0.3558 -0.8858
vn 0.9740 -0.1274 -0.1872
vn 0.4338 -0.2405 0.8683
vn -0.6052 -0.1499 0.7819
vn -0.4232 -0.6065 -0.6731
vn 0.2117 -0.1105 -0.9711
vn 0.9757 0.1149 0.1866
vn 0.1022 0.6080 0.7873
vn -0.7160 0.6980 0.0136
vn -0.4584 0.3864 -0.8004
vn 0.4744 0.6505 -0.5931
vn 0.8010 0.5628 0.2040
vn -0.0662 -0.8161 0.5742
vn -0.0977 -0.8076 0.5816
vn 0.1934 -0.5880 0.7854
vn 0.5514 -0.5420 0.6342
vn 0.3345 -0.6105 0.7179
vn -0.1088 -0.9046 0.4121
vn -0.5394 -0.5252 -0.6582
vn -0.2881 -0.9561 0.0530
vn -0.3420 -0.8956 0.2844
vn -0.3112 -0.5929 -0.7427
vn -0.4092 -0.6335 -0.6567
vn -0.4840 -0.5182 -0.7051
vn 0.6774 -0.7148 0.1737
vn 0.2190 -0.9659 -0.1379
vn 0.0934 -0.7149 -0.6930
vn 0.8056 0.1497 0.5732
vn 0.7758 -0.1138 0.6206
vn 0.7703 -0.1081 0.6284
vn -0.0432 -0.1764 0.9834
vn -0.0181 -0.3296 0.9440
vn 0.1712 -0.4204 0.8910
vn -0.9269 -0.1898 -0.3237
vn -0.9245 -0.2022 -0.3231
vn -0.7126 -0.6113 0.3442
vn -0.1837 -0.2851 -0.9407
vn -0.1925 -0.4009 -0.8956
vn -0.4845 -0.5559 -0.6755
vn 0.7363 0.3016 -0.6058
vn 0.7730 0.0126 -0.6343
vn 0.4288 -0.2027 -0.8804
vn 0.2438 0.0077 0.9698
vn 0.4451 -0.0937 0.8905
vn 0.7625 0.1882 0.6190
vn -0.8555 0.5060 0.1097
vn -0.6534 0.1496 0.7421
vn -0.5267 0.2455 0.8138
vn -0.5183 -0.0788 -0.8516
vn -0.5750 -0.1206 -0.8092
vn -0.7222 0.1121 -0.6826
vn 0.5633 0.3335 -0.7559
vn 0.2520 0.0770 -0.9646
vn 0.2346 0.0770 -0.9690
vn 0.9015 0.3688 0.2265
vn 0.9413 0.3242 0.0943
vn 0.8381 0.4500 -0.3083
vn 0.0790 0.9791 0.1872
vn 0.2820 0.7815 0.5566
vn 0.7108 0.5083 0.4862
vn -0.4858 0.8734 0.0333
vn -0.5844 0.8057 0.0969
vn -0.4931 0.5878 0.6414
vn -0.3708 0.8905 -0.2636
vn -0.6628 0.5931 -0.4571
vn -0.6268 0.6208 -0.4709
vn 0.0134 0.9353 -0.3535
vn 0.2734 0.7290 -0.6276
vn 0.0750 0.5129 -0.8551
vn 0.3005 0.9461 -0.1206
vn 0.6202 0.7742 -0.1262
vn 0.6660 0.6706 -0.3269
vn 0.6772 -0.3415 -0.6517
vn 0.1271 -0.5999 -0.7899
vn 0.9198 -0.0937 -0.3811
vn 0.9420 -0.1099 -0.3171
vn 0.8502 -0.3011 -0.4318
vn -0.2148 -0.6464 -0.7321
vn 0.1071 -0.1370 -0.9848
vn 0.9366 0.1843 0.2981
vn 0.7215 0.1952 0.6643
vn -0.1849 -0.9178 0.3514
vn -0.2506 -0.5668 -0.7849
vn 0.0840 0.4175 -0.9048
vn 0.9111 0.1852 0.3681
vn 0.3510 -0.1552 0.9234
vn -0.5231 -0.8494 0.0698
vn -0.8334 0.0959 -0.5444
vn -0.3434 0.9388 0.0264
vn 0.1103 0.6444 0.7567
vn -0.5329 -0.1054 0.8396
vn -0.8516 -0.5051 0.1406
vn 0.5319 -0.3314 -0.7792
vn 0.5337 -0.3000 -0.7907
vn 0.1666 -0.4883 -0.8566
vn 0.0468 -0.7796 -0.6245
vn 0.1573 -0.6194 -0.7691
vn 0.6798 -0.3163 -0.6617
vn 0.8786 0.3230 0.3516
vn 0.9138 -0.1454 -0.3792
vn 0.8019 -0.0910 -0.5904
vn 0.8821 0.0955 0.4614
vn 0.9237 0.1597 0.3483
vn 0.8683 0.2798 0.4095
vn 0.3078 -0.9269 -0.2146
vn 0.8009 -0.5915 -0.0930
vn 0.8211 -0.3255 0.4688
vn -0.6233 -0.7139 -0.3191
vn -0.4010 -0.8016 -0.4434
vn -0.4066 -0.7949 -0.4503
vn -0.1696 -0.1185 -0.9784
vn -0.0330 -0.2021 -0.9788
vn -0.0062 -0.4069 -0.9135
vn 0.6169 0.7855 0.0481
vn 0.6266 0.7781 0.0446
vn 0.6725 0.3582 -0.6476
vn 0.6372 0.1263 0.7603
vn 0.7250 0.0818 0.6838
vn 0.8909 0.2620 0.3712
vn -0.3239 -0.4873 0.8109
vn -0.0780 -0.6394 0.7649
vn 0.3194 -0.3977 0.8601
vn -0.4298 -0.2995 -0.8518
vn -0.3892 -0.5173 -0.7622
vn -0.6564 -0.6627 -0.3605
vn -0.1592 0.9762 -0.1474
vn -0.1433 0.5902 -0.7945
vn -0.2975 0.5099 -0.8072
vn 0.5517 0.5077 0.6617
vn 0.5942 0.5377 0.5981
vn 0.4040 0.7577 0.5126
vn -0.2360 -0.3049 0.9227
vn 0.1720 -0.1135 0.9785
vn 0.1800 -0.0974 0.9788
vn -0.7288 -0.6792 0.0873
vn -0.6595 -0.7226 0.2071
vn -0.5918 -0.5424 0.5963
vn -0.9391 0.3235 0.1154
vn -0.9702 0.0258 -0.2410
vn -0.8682 -0.4704 -0.1582
vn -0.5867 0.8027 0.1070
vn -0.5136 0.8580 0.0071
vn -0.5462 0.6378 -0.5430
vn -0.5418 0.7312 0.4145
vn -0.1108 0.8867 0.4489
vn -0.1433 0.8669 0.4774
vn -0.6913 0.4105 0.5946
vn -0.5148 0.1122 0.8500
vn -0.1769 0.2201 0.9593
vn -0.8865 0.1358 0.4423
vn -0.8541 -0.2248 0.4691
vn -0.7124 -0.2927 0.6378
vn 0.5925 0.3928 -0.7033
vn 0.9526 0.1000 -0.2872
vn 0.1934 0.5335 -0.8234
vn 0.1565 0.5855 -0.7954
vn 0.3841 0.5833 -0.7157
vn 0.9962 -0.0868 0.0053
vn 0.7696 -0.2641 -0.5814
vn -0.4789 0.6728 -0.5639
vn -0.7108 0.6720 -0.2079
vn 0.4213 0.5508 0.7205
vn 0.9831 -0.1802 -0.0336
vn 0.3305 -0.5668 -0.7547
vn -0.5248 0.6843 -0.5063
vn -0.5922 0.7263 0.3490
vn 0.6221 0.1560 0.7672
vn 0.4407 -0.8673 0.2315
vn -0.6209 -0.7708 -0.1426
vn -0.9962 0.0256 0.0828
vn -0.4345 0.0458 0.8995
vn 0.3821 -0.2419 0.8919
vn 0.6968 0.2316 -0.6788
vn 0.6827 0.2097 -0.6999
vn 0.9156 0.0347 -0.4005
vn 0.9741 0.2182 -0.0599
vn 0.9471 0.1412 -0.2882
vn 0.5816 0.3758 -0.7215
vn -0.6044 0.5749 -0.5515
vn 0.2291 0.5600 -0.7962
vn 0.3561 0.3609 -0.8619
vn -0.5233 0.7554 -0.3944
vn -0.4951 0.6993 -0.5157
vn -0.6133 0.6173 -0.4928
vn 0.7500 0.6592 0.0546
vn 0.3565 0.8606 -0.3637
vn -0.2258 0.9594 -0.1687
vn 0.8154 -0.1572 0.5571
vn 0.9301 -0.0044 0.3672
vn 0.9311 -0.0151 0.3643
vn 0.7940 -0.4650 -0.3915
vn 0.8320 -0.3216 -0.4520
vn 0.9248 -0.1569 -0.3465
vn -0.6745 -0.0036 -0.7383
vn -0.6683 0.0059 -0.7439
vn 0.1026 -0.0132 -0.9946
vn -0.7173 0.6938 -0.0646
vn -0.6460 0.7483 -0.1510
vn -0.5774 0.6270 -0.5229
vn -0.1799 0.4001 0.8986
vn -0.0788 0.6398 0.7645
vn -0.3740 0.8176 0.4378
vn 0.8708 -0.4880 -0.0599
vn 0.9536 -0.2958 0.0555
vn 0.8138 -0.2274 0.5348
vn -0.5530 -0.7378 -0.3872
vn 0.1672 -0.7782 -0.6054
vn 0.2554 -0.8446 -0.4705
vn -0.9011 0.3720 -0.2230
vn -0.8839 0.3572 -0.3020
vn -0.9484 0.0612 -0.3110
vn -0.3986 0.4033 0.8237
vn -0.6329 0.6008 0.4884
vn -0.6455 0.5972 0.4762
vn 0.5223 -0.0784 0.8491
vn 0.4582 0.0459 0.8877
vn 0.0494 0.1541 0.9868
vn -0.1645 -0.7926 0.5872
vn 0.2976 -0.7934 0.5310
vn 0.5699 -0.4004 0.7176
vn -0.5458 -0.8275 0.1319
vn -0.5254 -0.8509 -0.0000
vn 0.0187 -0.9798 -0.1991
vn -0.7183 -0.6244 0.3070
vn -0.9159 -0.3992 -0.0414
vn -0.9172 -0.3983 0.0061
vn -0.5984 -0.4667 0.6512
vn -0.5962 -0.0629 0.8004
vn -0.7991 0.1567 0.5804
vn -0.2707 -0.5086 0.8173
vn -0.0431 -0.2662 0.9630
vn -0.1355 -0.0567 0.9892
vn -0.5938 -0.8040 0.0323
vn -0.5529 -0.5479 -0.6278
vn -0.5754 -0.6124 0.5421
vn -0.9415 -0.1028 0.3209
vn -0.9767 -0.1739 -0.1255
vn -0.4566 -0.4921 -0.7412
vn 0.1210 -0.9745 0.1890
vn -0.2441 -0.1929 0.9504
vn -0.0880 0.8670 0.4905
vn -0.4205 0.6146 -0.6674
vn -0.2472 -0.7141 -0.6549
vn 0.2454 -0.8774 0.4124
vn -0.1297 0.0979 0.9867
vn 0.0063 0.9244 0.3815
vn -0.1873 0.4866 -0.8533
vn 0.7494 -0.3331 -0.5723
vn 0.8625 -0.1843 0.4713
vn 0.5624 0.6353 0.5292
vn 0.2039 0.8171 0.5393
vn 0.7379 0.2710 -0.6180
vn -0.0205 -0.9690 0.2463
vn -0.4458 -0.8886 -0.1081
vn -0.4579 -0.7040 -0.5428
vn -0.6645 0.4658 -0.5844
vn -0.5531 -0.5478 -0.6277
vn -0.8553 -0.4393 -0.2748
vn -0.0287 -0.1831 0.9827
vn -0.1208 -0.4980 0.8587
vn 0.0498 -0.6550 0.7540
vn -0.6433 0.6861 0.3398
vn -0.6423 0.5223 0.5610
vn -0.2257 0.3401 0.9129
vn -0.6573 0.3970 -0.6406
vn -0.7775 0.5275 -0.3423
vn -0.7206 0.6803 -0.1338
vn -0.0431 0.0576 -0.9974
vn -0.3755 0.0914 -0.9223
vn -0.3447 -0.0063 -0.9387
vn 0.3732 -0.8769 -0.3030
vn 0.2676 -0.9248 -0.2703
vn -0.2465 -0.7071 -0.6627
vn 0.0987 -0.4788 0.8723
vn 0.0125 -0.4992 0.8664
vn -0.0556 -0.6838 0.7275
vn 0.3135 0.8924 0.3245
vn -0.0827 0.8557 0.5109
vn -0.2909 0.2833 0.9138
vn 0.1027 0.9935 -0.0484
vn -0.2574 0.9632 -0.0775
vn -0.1969 0.9640 -0.1790
vn 0.5286 -0.5845 -0.6155
vn 0.2707 -0.5775 -0.7702
vn 0.3352 -0.2271 -0.9144
vn 0.2653 -0.7617 0.5911
vn 0.0926 -0.9108 0.4024
vn 0.4130 -0.8656 -0.2832
vn 0.4689 0.5770 0.6688
vn 0.2828 0.2037 0.9373
vn 0.4206 -0.0942 0.9023
vn 0.3307 0.7933 0.5112
vn 0.4782 0.8011 0.3600
vn 0.4061 0.9054 0.1239
vn 0.2183 0.5037 -0.8359
vn 0.1920 0.5225 -0.8307
vn 0.3113 0.9300 -0.1955
vn 0.8894 0.0554 -0.4538
vn 0.7926 -0.0589 -0.6069
vn 0.8282 -0.1025 -0.5510
vn 0.9811 -0.0828 -0.1747
vn 0.9733 -0.1397 -0.1819
vn 0.8204 -0.4211 -0.3868
vn 0.9557 0.2083 0.2081
vn 0.9189 0.1784 0.3518
vn 0.8609 0.0042 0.5087
vn 0.9074 0.4058 0.1093
vn 0.1876 0.8269 0.5302
vn 0.3392 0.9313 0.1325
vn 0.8654 0.3822 -0.3240
vn 0.8700 0.3755 -0.3194
vn 0.4832 0.8676 -0.1177
usemtl (null)
s off
f 337//1 2//1 4//1 338//1
f 338//2 4//2 6//2 339//2
f 76//3 77//3 72//3 73//3
f 75//4 76//4 73//4 74//4
f 340//5 10//5 12//5 341//5
f 341//6 12//6 14//6 342//6
f 25//7 26//7 24//7 17//7
f 343//8 16//8 2//8 337//8
f 342//9 14//9 16//9 343//9
f 1//10 3//10 5//10 7//10 9//10 11//10 13//10 15//10
f 18//11 17//11 24//11 23//11 22//11 21//11 20//11 19//11
f 26//12 27//12 23//12 24//12
f 27//13 28//13 22//13 23//13
f 28//14 29//14 21//14 22//14
f 29//15 30//15 20//15 21//15
f 30//16 31//16 19//16 20//16
f 31//17 32//17 18//17 19//17
f 32//18 25//18 17//18 18//18
f 462//19 294//19 26//19 25//19
f 294//20 457//20 27//20 26//20
f 457//21 458//21 28//21 27//21
f 458//22 459//22 29//22 28//22
f 459//23 460//23 30//23 29//23
f 460//24 461//24 31//24 30//24
f 89//25 87//25 86//25 85//25
f 87//26 88//26 84//26 86//26
f 1//27 33//27 34//27 3//27
f 3//28 34//28 35//28 5//28
f 5//29 35//29 36//29 7//29
f 7//30 36//30 37//30 9//30
f 9//31 37//31 38//31 11//31
f 11//32 38//32 39//32 13//32
f 15//33 40//33 33//33 1//33
f 13//34 39//34 40//34 15//34
f 411//35 409//35 406//35 407//35
f 93//36 94//36 52//36 53//36
f 97//37 93//37 53//37 54//37
f 12//38 10//38 45//38 44//38
f 10//39 8//39 46//39 45//39
f 8//40 6//40 47//40 46//40
f 6//41 4//41 48//41 47//41
f 409//42 410//42 408//42 406//42
f 51//43 50//43 53//43 52//43
f 50//44 49//44 54//44 53//44
f 98//45 97//45 54//45 49//45
f 94//46 95//46 51//46 52//46
f 95//47 96//47 50//47 51//47
f 96//48 98//48 49//48 50//48
f 112//49 113//49 110//49 109//49
f 111//50 112//50 109//50 108//50
f 100//51 99//51 55//51 58//51
f 102//52 103//52 59//52 57//52
f 103//53 104//53 60//53 59//53
f 104//54 100//54 58//54 60//54
f 124//55 61//55 62//55 117//55
f 117//56 62//56 63//56 118//56
f 118//57 63//57 64//57 119//57
f 119//58 64//58 65//58 120//58
f 120//59 65//59 66//59 121//59
f 121//60 66//60 67//60 122//60
f 123//61 68//61 61//61 124//61
f 122//62 67//62 68//62 123//62
f 344//63 69//63 70//63 345//63
f 345//64 70//64 71//64 346//64
f 347//65 75//65 74//65 346//65
f 348//66 79//66 69//66 344//66
f 80//67 78//67 71//67 70//67
f 79//68 80//68 70//68 69//68
f 64//69 63//69 77//69 76//69
f 65//70 64//70 76//70 75//70
f 340//71 65//71 75//71 347//71
f 339//72 6//72 79//72 348//72
f 8//73 10//73 78//73 80//73
f 6//74 8//74 80//74 79//74
f 463//75 464//75 83//75 82//75
f 464//76 465//76 81//76 83//76
f 466//77 90//77 81//77 465//77
f 90//78 91//78 83//78 81//78
f 91//79 92//79 82//79 83//79
f 467//80 89//80 85//80 463//80
f 47//81 48//81 87//81 89//81
f 48//82 41//82 88//82 87//82
f 462//83 25//83 90//83 466//83
f 25//84 32//84 91//84 90//84
f 32//85 31//85 92//85 91//85
f 461//86 47//86 89//86 467//86
f 56//36 57//36 94//36 93//36
f 55//37 56//37 93//37 97//37
f 58//45 55//45 97//45 98//45
f 57//46 59//46 95//46 94//46
f 59//47 60//47 96//47 95//47
f 60//48 58//48 98//48 96//48
f 43//87 42//87 102//87 101//87
f 44//88 43//88 101//88 99//88
f 12//89 44//89 99//89 100//89
f 42//90 16//90 103//90 102//90
f 16//91 14//91 104//91 103//91
f 14//92 12//92 100//92 104//92
f 109//93 110//93 107//93 106//93
f 108//94 109//94 106//94 105//94
f 114//95 111//95 108//95 105//95
f 115//96 114//96 105//96 106//96
f 116//97 115//97 106//97 107//97
f 113//98 116//98 107//98 110//98
f 101//99 102//99 113//99 112//99
f 99//100 101//100 112//100 111//100
f 55//101 99//101 111//101 114//101
f 56//102 55//102 114//102 115//102
f 57//103 56//103 115//103 116//103
f 102//104 57//104 116//104 113//104
f 33//105 124//105 117//105 34//105
f 34//106 117//106 118//106 35//106
f 35//107 118//107 119//107 36//107
f 36//108 119//108 120//108 37//108
f 37//109 120//109 121//109 38//109
f 38//110 121//110 122//110 39//110
f 40//111 123//111 124//111 33//111
f 39//112 122//112 123//112 40//112
f 61//1 337//1 338//1 62//1
f 62//2 338//2 339//2 63//2
f 357//113 355//113 353//113 352//113
f 355//114 356//114 354//114 353//114
f 68//115 343//115 337//115 61//115
f 67//116 342//116 343//116 68//116
f 72//63 344//63 345//63 73//63
f 73//64 345//64 346//64 74//64
f 78//117 347//117 346//117 71//117
f 77//118 348//118 344//118 72//118
f 10//71 340//71 347//71 78//71
f 63//72 339//72 348//72 77//72
f 349//119 352//119 353//119 350//119
f 350//120 353//120 354//120 351//120
f 358//121 359//121 350//121 351//121
f 359//122 360//122 349//122 350//122
f 356//123 358//123 351//123 354//123
f 360//124 357//124 352//124 349//124
f 340//125 341//125 355//125 357//125
f 341//126 342//126 356//126 355//126
f 67//127 66//127 359//127 358//127
f 66//128 65//128 360//128 359//128
f 342//129 67//129 358//129 356//129
f 65//130 340//130 357//130 360//130
f 403//131 405//131 407//131 406//131
f 404//132 403//132 406//132 408//132
f 410//133 412//133 404//133 408//133
f 413//134 411//134 407//134 405//134
f 414//135 413//135 405//135 403//135
f 412//136 414//136 403//136 404//136
f 42//137 41//137 409//137 411//137
f 41//138 48//138 410//138 409//138
f 48//139 4//139 412//139 410//139
f 16//140 42//140 411//140 413//140
f 2//141 16//141 413//141 414//141
f 4//142 2//142 414//142 412//142
f 41//143 42//143 294//143 462//143
f 42//144 43//144 457//144 294//144
f 43//145 44//145 458//145 457//145
f 475//146 476//146 471//146 472//146
f 474//147 475//147 472//147 473//147
f 46//148 47//148 461//148 460//148
f 85//149 86//149 464//149 463//149
f 86//150 84//150 465//150 464//150
f 88//151 466//151 465//151 84//151
f 92//152 467//152 463//152 82//152
f 41//153 462//153 466//153 88//153
f 31//154 461//154 467//154 92//154
f 468//155 469//155 472//155 471//155
f 469//156 470//156 473//156 472//156
f 477//157 474//157 473//157 470//157
f 476//158 478//158 468//158 471//158
f 479//159 477//159 470//159 469//159
f 478//160 479//160 469//160 468//160
f 459//161 458//161 476//161 475//161
f 460//162 459//162 475//162 474//162
f 46//163 460//163 474//163 477//163
f 458//164 44//164 478//164 476//164
f 45//165 46//165 477//165 479//165
f 44//166 45//166 479//166 478//166
f 125//167 138//167 137//167
f 126//168 138//168 140//168
f 125//169 137//169 142//169
f 125//170 142//170 144//170
f 125//171 144//171 141//171
f 126//172 140//172 147//172
f 127//173 139//173 149//173
f 128//174 143//174 151//174
f 129//175 145//175 153//175
f 130//176 146//176 155//176
f 126//177 147//177 150//177
f 127//178 149//178 152//178
f 128//179 151//179 154//179
f 129//180 153//180 156//180
f 130//181 155//181 148//181
f 131//182 157//182 162//182
f 132//183 158//183 164//183
f 133//184 159//184 165//184
f 134//185 160//185 166//185
f 135//186 161//186 163//186
f 137//187 139//187 127//187
f 137//188 138//188 139//188
f 138//189 126//189 139//189
f 140//190 141//190 130//190
f 140//191 138//191 141//191
f 138//192 125//192 141//192
f 142//193 143//193 128//193
f 142//194 137//194 143//194
f 137//195 127//195 143//195
f 144//196 145//196 129//196
f 144//197 142//197 145//197
f 142//198 128//198 145//198
f 141//199 146//199 130//199
f 141//200 144//200 146//200
f 144//201 129//201 146//201
f 147//202 148//202 135//202
f 147//203 140//203 148//203
f 140//204 130//204 148//204
f 149//205 150//205 131//205
f 149//206 139//206 150//206
f 139//207 126//207 150//207
f 151//208 152//208 132//208
f 151//209 143//209 152//209
f 143//210 127//210 152//210
f 153//211 154//211 133//211
f 153//212 145//212 154//212
f 145//213 128//213 154//213
f 155//214 156//214 134//214
f 155//215 146//215 156//215
f 146//216 129//216 156//216
f 150//217 157//217 131//217
f 150//218 147//218 157//218
f 147//219 135//219 157//219
f 152//220 158//220 132//220
f 152//221 149//221 158//221
f 149//222 131//222 158//222
f 154//223 159//223 133//223
f 154//224 151//224 159//224
f 151//225 132//225 159//225
f 156//226 160//226 134//226
f 156//227 153//227 160//227
f 153//228 133//228 160//228
f 148//229 161//229 135//229
f 148//230 155//230 161//230
f 155//231 134//231 161//231
f 162//232 163//232 136//232
f 162//233 157//233 163//233
f 157//234 135//234 163//234
f 164//235 162//235 136//235
f 164//236 158//236 162//236
f 158//237 131//237 162//237
f 165//238 164//238 136//238
f 165//239 159//239 164//239
f 159//240 132//240 164//240
f 166//241 165//241 136//241
f 166//242 160//242 165//242
f 160//243 133//243 165//243
f 163//244 166//244 136//244
f 163//245 161//245 166//245
f 161//246 134//246 166//246
f 167//247 180//247 179//247
f 168//248 180//248 182//248
f 167//249 179//249 184//249
f 167//250 184//250 186//250
f 167//251 186//251 183//251
f 168//252 182//252 189//252
f 169//253 181//253 191//253
f 170//254 185//254 193//254
f 171//255 187//255 195//255
f 172//256 188//256 197//256
f 168//257 189//257 192//257
f 169//258 191//258 194//258
f 170//259 193//259 196//259
f 171//260 195//260 198//260
f 172//261 197//261 190//261
f 173//262 199//262 204//262
f 174//263 200//263 206//263
f 175//264 201//264 207//264
f 176//265 202//265 208//265
f 177//266 203//266 205//266
f 179//267 181//267 169//267
f 179//268 180//268 181//268
f 180//269 168//269 181//269
f 182//270 183//270 172//270
f 182//271 180//271 183//271
f 180//272 167//272 183//272
f 184//273 185//273 170//273
f 184//274 179//274 185//274
f 179//275 169//275 185//275
f 186//276 187//276 171//276
f 186//277 184//277 187//277
f 184//278 170//278 187//278
f 183//279 188//279 172//279
f 183//280 186//280 188//280
f 186//281 171//281 188//281
f 189//282 190//282 177//282
f 189//283 182//283 190//283
f 182//284 172//284 190//284
f 191//285 192//285 173//285
f 191//286 181//286 192//286
f 181//287 168//287 192//287
f 193//288 194//288 174//288
f 193//289 185//289 194//289
f 185//290 169//290 194//290
f 195//291 196//291 175//291
f 195//292 187//292 196//292
f 187//293 170//293 196//293
f 197//294 198//294 176//294
f 197//295 188//295 198//295
f 188//296 171//296 198//296
f 192//297 199//297 173//297
f 192//298 189//298 199//298
f 189//299 177//299 199//299
f 194//300 200//300 174//300
f 194//301 191//301 200//301
f 191//302 173//302 200//302
f 196//303 201//303 175//303
f 196//304 193//304 201//304
f 193//305 174//305 201//305
f 198//306 202//306 176//306
f 198//307 195//307 202//307
f 195//308 175//308 202//308
f 190//309 203//309 177//309
f 190//310 197//310 203//310
f 197//311 176//311 203//311
f 204//312 205//312 178//312
f 204//313 199//313 205//313
f 199//314 177//314 205//314
f 206//315 204//315 178//315
f 206//316 200//316 204//316
f 200//317 173//317 204//317
f 207//318 206//318 178//318
f 207//319 201//319 206//319
f 201//320 174//320 206//320
f 208//321 207//321 178//321
f 208//322 202//322 207//322
f 202//323 175//323 207//323
f 205//324 208//324 178//324
f 205//325 203//325 208//325
f 203//326 176//326 208//326
f 252//327 265//327 264//327
f 253//328 265//328 267//328
f 252//329 264//329 269//329
f 252//330 269//330 271//330
f 252//331 271//331 268//331
f 253//332 267//332 274//332
f 254//333 266//333 276//333
f 255//334 270//334 278//334
f 256//335 272//335 280//335
f 257//336 273//336 282//336
f 253//337 274//337 277//337
f 254//338 276//338 279//338
f 255//339 278//339 281//339
f 256//340 280//340 283//340
f 257//341 282//341 275//341
f 258//342 284//342 289//342
f 259//343 285//343 291//343
f 260//344 286//344 292//344
f 261//345 287//345 293//345
f 262//346 288//346 290//346
f 264//347 266//347 254//347
f 264//348 265//348 266//348
f 265//349 253//349 266//349
f 267//350 268//350 257//350
f 267//351 265//351 268//351
f 265//352 252//352 268//352
f 269//353 270//353 255//353
f 269//354 264//354 270//354
f 264//355 254//355 270//355
f 271//356 272//356 256//356
f 271//357 269//357 272//357
f 269//358 255//358 272//358
f 268//359 273//359 257//359
f 268//360 271//360 273//360
f 271//361 256//361 273//361
f 274//362 275//362 262//362
f 274//363 267//363 275//363
f 267//364 257//364 275//364
f 276//365 277//365 258//365
f 276//366 266//366 277//366
f 266//367 253//367 277//367
f 278//368 279//368 259//368
f 278//369 270//369 279//369
f 270//370 254//370 279//370
f 280//371 281//371 260//371
f 280//372 272//372 281//372
f 272//373 255//373 281//373
f 282//374 283//374 261//374
f 282//375 273//375 283//375
f 273//376 256//376 283//376
f 277//377 284//377 258//377
f 277//378 274//378 284//378
f 274//379 262//379 284//379
f 279//380 285//380 259//380
f 279//381 276//381 285//381
f 276//382 258//382 285//382
f 281//383 286//383 260//383
f 281//384 278//384 286//384
f 278//385 259//385 286//385
f 283//386 287//386 261//386
f 283//387 280//387 287//387
f 280//388 260//388 287//388
f 275//389 288//389 262//389
f 275//390 282//390 288//390
f 282//391 261//391 288//391
f 289//392 290//392 263//392
f 289//393 284//393 290//393
f 284//394 262//394 290//394
f 291//395 289//395 263//395
f 291//396 285//396 289//396
f 285//397 258//397 289//397
f 292//398 291//398 263//398
f 292//399 286//399 291//399
f 286//400 259//400 291//400
f 293//401 292//401 263//401
f 293//402 287//402 292//402
f 287//403 260//403 292//403
f 290//404 293//404 263//404
f 290//405 288//405 293//405
f 288//406 261//406 293//406
f 210//407 223//407 222//407
f 211//408 223//408 225//408
f 210//409 222//409 227//409
f 210//410 227//410 229//410
f 210//411 229//411 226//411
f 211//412 225//412 232//412
f 212//413 224//413 234//413
f 213//414 228//414 236//414
f 214//415 230//415 238//415
f 215//416 231//416 240//416
f 211//417 232//417 235//417
f 212//418 234//418 237//418
f 213//419 236//419 239//419
f 214//420 238//420 241//420
f 215//421 240//421 233//421
f 216//422 242//422 247//422
f 217//423 243//423 249//423
f 218//424 244//424 250//424
f 219//425 245//425 251//425
f 220//426 246//426 248//426
f 222//427 224//427 212//427
f 222//428 223//428 224//428
f 223//429 211//429 224//429
f 225//430 226//430 215//430
f 225//431 223//431 226//431
f 223//432 210//432 226//432
f 227//433 228//433 213//433
f 227//434 222//434 228//434
f 222//435 212//435 228//435
f 229//436 230//436 214//436
f 229//437 227//437 230//437
f 227//438 213//438 230//438
f 226//439 231//439 215//439
f 226//440 229//440 231//440
f 229//441 214//441 231//441
f 232//442 233//442 220//442
f 232//443 225//443 233//443
f 225//444 215//444 233//444
f 234//445 235//445 216//445
f 234//446 224//446 235//446
f 224//447 211//447 235//447
f 236//448 237//448 217//448
f 236//449 228//449 237//449
f 228//450 212//450 237//450
f 238//451 239//451 218//451
f 238//452 230//452 239//452
f 230//453 213//453 239//453
f 240//454 241//454 219//454
f 240//455 231//455 241//455
f 231//456 214//456 241//456
f 235//457 242//457 216//457
f 235//458 232//458 242//458
f 232//459 220//459 242//459
f 237//460 243//460 217//460
f 237//461 234//461 243//461
f 234//462 216//462 243//462
f 239//463 244//463 218//463
f 239//464 236//464 244//464
f 236//465 217//465 244//465
f 241//466 245//466 219//466
f 241//467 238//467 245//467
f 238//468 218//468 245//468
f 233//469 246//469 220//469
f 233//470 240//470 246//470
f 240//471 219//471 246//471
f 247//472 248//472 221//472
f 247//473 242//473 248//473
f 242//474 220//474 248//474
f 249//475 247//475 221//475
f 249//476 243//476 247//476
f 243//477 216//477 247//477
f 250//478 249//478 221//478
f 250//479 244//479 249//479
f 244//480 217//480 249//480
f 251//481 250//481 221//481
f 251//482 245//482 250//482
f 245//483 218//483 250//483
f 248//484 251//484 221//484
f 248//485 246//485 251//485
f 246//486 219//486 251//486
f 295//487 308//487 307//487
f 296//488 308//488 310//488
f 295//489 307//489 312//489
f 295//490 312//490 314//490
f 295//491 314//491 311//491
f 296//492 310//492 317//492
f 297//493 309//493 319//493
f 298//494 313//494 321//494
f 299//495 315//495 323//495
f 300//496 316//496 325//496
f 296//497 317//497 320//497
f 297//498 319//498 322//498
f 298//499 321//499 324//499
f 299//500 323//500 326//500
f 300//501 325//501 318//501
f 301//502 327//502 332//502
f 302//503 328//503 334//503
f 303//504 329//504 335//504
f 304//505 330//505 336//505
f 305//506 331//506 333//506
f 307//507 309//507 297//507
f 307//508 308//508 309//508
f 308//509 296//509 309//509
f 310//510 311//510 300//510
f 310//511 308//511 311//511
f 308//512 295//512 311//512
f 312//513 313//513 298//513
f 312//514 307//514 313//514
f 307//515 297//515 313//515
f 314//516 315//516 299//516
f 314//517 312//517 315//517
f 312//518 298//518 315//518
f 311//519 316//519 300//519
f 311//520 314//520 316//520
f 314//521 299//521 316//521
f 317//522 318//522 305//522
f 317//523 310//523 318//523
f 310//524 300//524 318//524
f 319//525 320//525 301//525
f 319//526 309//526 320//526
f 309//527 296//527 320//527
f 321//528 322//528 302//528
f 321//529 313//529 322//529
f 313//530 297//530 322//530
f 323//531 324//531 303//531
f 323//532 315//532 324//532
f 315//533 298//533 324//533
f 325//534 326//534 304//534
f 325//535 316//535 326//535
f 316//536 299//536 326//536
f 320//537 327//537 301//537
f 320//538 317//538 327//538
f 317//539 305//539 327//539
f 322//540 328//540 302//540
f 322//541 319//541 328//541
f 319//542 301//542 328//542
f 324//543 329//543 303//543
f 324//544 321//544 329//544
f 321//545 302//545 329//545
f 326//546 330//546 304//546
f 326//547 323//547 330//547
f 323//548 303//548 330//548
f 318//549 331//549 305//549
f 318//550 325//550 331//550
f 325//551 304//551 331//551
f 332//552 333//552 306//552
f 332//553 327//553 333//553
f 327//554 305//554 333//554
f 334//555 332//555 306//555
f 334//556 328//556 332//556
f 328//557 301//557 332//557
f 335//558 334//558 306//558
f 335//559 329//559 334//559
f 329//560 302//560 334//560
f 336//561 335//561 306//561
f 336//562 330//562 335//562
f 330//563 303//563 335//563
f 333//564 336//564 306//564
f 333//565 331//565 336//565
f 331//566 304//566 336//566
f 480//567 493//567 492//567
f 481//568 493//568 495//568
f 480//569 492//569 497//569
f 480//570 497//570 499//570
f 480//571 499//571 496//571
f 481//572 495//572 502//572
f 482//573 494//573 504//573
f 483//574 498//574 506//574
f 484//575 500//575 508//575
f 485//576 501//576 510//576
f 481//577 502//577 505//577
f 482//578 504//578 507//578
f 483//579 506//579 509//579
f 484//580 508//580 511//580
f 485//581 510//581 503//581
f 486//582 512//582 517//582
f 487//583 513//583 519//583
f 488//584 514//584 520//584
f 489//585 515//585 521//585
f 490//586 516//586 518//586
f 492//587 494//587 482//587
f 492//588 493//588 494//588
f 493//589 481//589 494//589
f 495//590 496//590 485//590
f 495//591 493//591 496//591
f 493//592 480//592 496//592
f 497//593 498//593 483//593
f 497//594 492//594 498//594
f 492//595 482//595 498//595
f 499//596 500//596 484//596
f 499//597 497//597 500//597
f 497//598 483//598 500//598
f 496//599 501//599 485//599
f 496//600 499//600 501//600
f 499//601 484//601 501//601
f 502//602 503//602 490//602
f 502//603 495//603 503//603
f 495//604 485//604 503//604
f 504//605 505//605 486//605
f 504//606 494//606 505//606
f 494//607 481//607 505//607
f 506//608 507//608 487//608
f 506//609 498//609 507//609
f 498//610 482//610 507//610
f 508//611 509//611 488//611
f 508//612 500//612 509//612
f 500//613 483//613 509//613
f 510//614 511//614 489//614
f 510//615 501//615 511//615
f 501//616 484//616 511//616
f 505//617 512//617 486//617
f 505//618 502//618 512//618
f 502//619 490//619 512//619
f 507//620 513//620 487//620
f 507//621 504//621 513//621
f 504//622 486//622 513//622
f 509//623 514//623 488//623
f 509//624 506//624 514//624
f 506//625 487//625 514//625
f 511//626 515//626 489//626
f 511//627 508//627 515//627
f 508//628 488//628 515//628
f 503//629 516//629 490//629
f 503//630 510//630 516//630
f 510//631 489//631 516//631
f 517//632 518//632 491//632
f 517//633 512//633 518//633
f 512//634 490//634 518//634
f 519//635 517//635 491//635
f 519//636 513//636 517//636
f 513//637 486//637 517//637
f 520//638 519//638 491//638
f 520//639 514//639 519//639
f 514//640 487//640 519//640
f 521//641 520//641 491//641
f 521//642 515//642 520//642
f 515//643 488//643 520//643
f 518//644 521//644 491//644
f 518//645 516//645 521//645
f 516//646 489//646 521//646
f 361//647 374//647 373//647
f 362//648 374//648 376//648
f 361//649 373//649 378//649
f 361//650 378//650 380//650
f 361//651 380//651 377//651
f 362//652 376//652 383//652
f 363//653 375//653 385//653
f 364//654 379//654 387//654
f 365//655 381//655 389//655
f 366//656 382//656 391//656
f 362//657 383//657 386//657
f 363//658 385//658 388//658
f 364//659 387//659 390//659
f 365//660 389//660 392//660
f 366//661 391//661 384//661
f 367//662 393//662 398//662
f 368//663 394//663 400//663
f 369//664 395//664 401//664
f 370//665 396//665 402//665
f 371//666 397//666 399//666
f 373//667 375//667 363//667
f 373//668 374//668 375//668
f 374//669 362//669 375//669
f 376//670 377//670 366//670
f 376//671 374//671 377//671
f 374//672 361//672 377//672
f 378//673 379//673 364//673
f 378//674 373//674 379//674
f 373//675 363//675 379//675
f 380//676 381//676 365//676
f 380//677 378//677 381//677
f 378//678 364//678 381//678
f 377//679 382//679 366//679
f 377//680 380//680 382//680
f 380//681 365//681 382//681
f 383//682 384//682 371//682
f 383//683 376//683 384//683
f 376//684 366//684 384//684
f 385//685 386//685 367//685
f 385//686 375//686 386//686
f 375//687 362//687 386//687
f 387//688 388//688 368//688
f 387//689 379//689 388//689
f 379//690 363//690 388//690
f 389//691 390//691 369//691
f 389//692 381//692 390//692
f 381//693 364//693 390//693
f 391//694 392//694 370//694
f 391//695 382//695 392//695
f 382//696 365//696 392//696
f 386//697 393//697 367//697
f 386//698 383//698 393//698
f 383//699 371//699 393//699
f 388//700 394//700 368//700
f 388//701 385//701 394//701
f 385//702 367//702 394//702
f 390//703 395//703 369//703
f 390//704 387//704 395//704
f 387//705 368//705 395//705
f 392//706 396//706 370//706
f 392//707 389//707 396//707
f 389//708 369//708 396//708
f 384//709 397//709 371//709
f 384//710 391//710 397//710
f 391//711 370//711 397//711
f 398//712 399//712 372//712
f 398//713 393//713 399//713
f 393//714 371//714 399//714
f 400//715 398//715 372//715
f 400//716 394//716 398//716
f 394//717 367//717 398//717
f 401//718 400//718 372//718
f 401//719 395//719 400//719
f 395//720 368//720 400//720
f 402//721 401//721 372//721
f 402//722 396//722 401//722
f 396//723 369//723 401//723
f 399//724 402//724 372//724
f 399//725 397//725 402//725
f 397//726 370//726 402//726
f 415//727 428//727 427//727
f 416//728 428//728 430//728
f 415//729 427//729 432//729
f 415//730 432//730 434//730
f 415//731 434//731 431//731
f 416//732 430//732 437//732
f 417//733 429//733 439//733
f 418//734 433//734 441//734
f 419//735 435//735 443//735
f 420//736 436//736 445//736
f 416//737 437//737 440//737
f 417//738 439//738 442//738
f 418//739 441//739 444//739
f 419//740 443//740 446//740
f 420//741 445//741 438//741
f 421//742 447//742 452//742
f 422//743 448//743 454//743
f 423//744 449//744 455//744
f 424//745 450//745 456//745
f 425//746 451//746 453//746
f 427//747 429//747 417//747
f 427//748 428//748 429//748
f 428//749 416//749 429//749
f 430//750 431//750 420//750
f 430//751 428//751 431//751
f 428//752 415//752 431//752
f 432//753 433//753 418//753
f 432//754 427//754 433//754
f 427//755 417//755 433//755
f 434//756 435//756 419//756
f 434//757 432//757 435//757
f 432//758 418//758 435//758
f 431//759 436//759 420//759
f 431//760 434//760 436//760
f 434//761 419//761 436//761
f 437//762 438//762 425//762
f 437//763 430//763 438//763
f 430//764 420//764 438//764
f 439//765 440//765 421//765
f 439//766 429//766 440//766
f 429//767 416//767 440//767
f 441//768 442//768 422//768
f 441//769 433//769 442//769
f 433//770 417//770 442//770
f 443//771 444//771 423//771
f 443//772 435//772 444//772
f 435//773 418//773 444//773
f 445//774 446//774 424//774
f 445//775 436//775 446//775
f 436//776 419//776 446//776
f 440//777 447//777 421//777
f 440//778 437//778 447//778
f 437//779 425//779 447//779
f 442//780 448//780 422//780
f 442//781 439//781 448//781
f 439//782 421//782 448//782
f 444//783 449//783 423//783
f 444//784 441//784 449//784
f 441//785 422//785 449//785
f 446//786 450//786 424//786
f 446//787 443//787 450//787
f 443//788 423//788 450//788
f 438//789 451//789 425//789
f 438//790 445//790 451//790
f 445//791 424//791 451//791
f 452//792 453//792 426//792
f 452//793 447//793 453//793
f 447//794 425//794 453//794
f 454//795 452//795 426//795
f 454//796 448//796 452//796
f 448//797 421//797 452//797
f 455//798 454//798 426//798
f 455//799 449//799 454//799
f 449//800 422//800 454//800
f 456//801 455//801 426//801
f 456//802 450//802 455//802
f 450//803 423//803 455//803
f 453//804 456//804 426//804
f 453//805 451//805 456//805
f 451//806 424//806 456//806
